<svg width="32" height="32" viewBox="0 0 32 32" fill="none" xmlns="http://www.w3.org/2000/svg">
<path d="M3.99998 0H20.9929L29.9999 8.97203V30C29.9999 31.105 29.104 32 28 32H3.99998C2.89595 32 2 31.105 2 30V1.99998C2 0.89502 2.89605 0 3.99998 0Z" fill="#297BF7"/>
<path d="M29.971 9.00002H23C21.896 9.00002 21 8.10406 21 7.00003V0.0200195L29.971 9.00002Z" fill="#0052CF"/>
<path d="M8.98223 14.788C9.42623 14.788 9.81423 14.876 10.1462 15.052C10.4782 15.228 10.7342 15.476 10.9142 15.796C11.0982 16.112 11.1902 16.478 11.1902 16.894C11.1902 17.306 11.0982 17.672 10.9142 17.992C10.7342 18.312 10.4762 18.56 10.1402 18.736C9.80823 18.912 9.42223 19 8.98223 19H7.40423V14.788H8.98223ZM8.91623 18.112C9.30423 18.112 9.60623 18.006 9.82223 17.794C10.0382 17.582 10.1462 17.282 10.1462 16.894C10.1462 16.506 10.0382 16.204 9.82223 15.988C9.60623 15.772 9.30423 15.664 8.91623 15.664H8.43023V18.112H8.91623ZM13.7556 19.042C13.3596 19.042 12.9956 18.95 12.6636 18.766C12.3356 18.582 12.0736 18.326 11.8776 17.998C11.6856 17.666 11.5896 17.294 11.5896 16.882C11.5896 16.47 11.6856 16.1 11.8776 15.772C12.0736 15.444 12.3356 15.188 12.6636 15.004C12.9956 14.82 13.3596 14.728 13.7556 14.728C14.1516 14.728 14.5136 14.82 14.8416 15.004C15.1736 15.188 15.4336 15.444 15.6216 15.772C15.8136 16.1 15.9096 16.47 15.9096 16.882C15.9096 17.294 15.8136 17.666 15.6216 17.998C15.4296 18.326 15.1696 18.582 14.8416 18.766C14.5136 18.95 14.1516 19.042 13.7556 19.042ZM13.7556 18.106C14.0916 18.106 14.3596 17.994 14.5596 17.77C14.7636 17.546 14.8656 17.25 14.8656 16.882C14.8656 16.51 14.7636 16.214 14.5596 15.994C14.3596 15.77 14.0916 15.658 13.7556 15.658C13.4156 15.658 13.1436 15.768 12.9396 15.988C12.7396 16.208 12.6396 16.506 12.6396 16.882C12.6396 17.254 12.7396 17.552 12.9396 17.776C13.1436 17.996 13.4156 18.106 13.7556 18.106ZM16.3064 16.888C16.3064 16.472 16.3964 16.102 16.5764 15.778C16.7564 15.45 17.0064 15.196 17.3264 15.016C17.6504 14.832 18.0164 14.74 18.4244 14.74C18.9244 14.74 19.3524 14.872 19.7084 15.136C20.0644 15.4 20.3024 15.76 20.4224 16.216H19.2944C19.2104 16.04 19.0904 15.906 18.9344 15.814C18.7824 15.722 18.6084 15.676 18.4124 15.676C18.0964 15.676 17.8404 15.786 17.6444 16.006C17.4484 16.226 17.3504 16.52 17.3504 16.888C17.3504 17.256 17.4484 17.55 17.6444 17.77C17.8404 17.99 18.0964 18.1 18.4124 18.1C18.6084 18.1 18.7824 18.054 18.9344 17.962C19.0904 17.87 19.2104 17.736 19.2944 17.56H20.4224C20.3024 18.016 20.0644 18.376 19.7084 18.64C19.3524 18.9 18.9244 19.03 18.4244 19.03C18.0164 19.03 17.6504 18.94 17.3264 18.76C17.0064 18.576 16.7564 18.322 16.5764 17.998C16.3964 17.674 16.3064 17.304 16.3064 16.888ZM23.6307 19L22.7727 17.71L22.0167 19H20.8527L22.2027 16.858L20.8227 14.788H22.0167L22.8627 16.06L23.6067 14.788H24.7707L23.4327 16.912L24.8247 19H23.6307Z" fill="white"/>
</svg>
